<?xml version="1.0" encoding="UTF-8" standalone="no"?>
<!-- Created with Inkscape (http://www.inkscape.org/) -->

<svg
   xmlns:dc="http://purl.org/dc/elements/1.1/"
   xmlns:cc="http://creativecommons.org/ns#"
   xmlns:rdf="http://www.w3.org/1999/02/22-rdf-syntax-ns#"
   xmlns:svg="http://www.w3.org/2000/svg"
   xmlns="http://www.w3.org/2000/svg"
   xmlns:xlink="http://www.w3.org/1999/xlink"
   xmlns:sodipodi="http://sodipodi.sourceforge.net/DTD/sodipodi-0.dtd"
   xmlns:inkscape="http://www.inkscape.org/namespaces/inkscape"
   width="190"
   height="190"
   id="svg2"
   version="1.1"
   inkscape:version="0.48.4 r9939"
   sodipodi:docname="bg.svg">
  <defs
     id="defs4">
    <linearGradient
       id="linearGradient3774">
      <stop
         style="stop-color:#1c6876;stop-opacity:1;"
         offset="0"
         id="stop3776" />
      <stop
         style="stop-color:#666666;stop-opacity:0;"
         offset="1"
         id="stop3778" />
    </linearGradient>
    <linearGradient
       inkscape:collect="always"
       xlink:href="#linearGradient3774"
       id="linearGradient3772"
       x1="55"
       y1="135"
       x2="55"
       y2="200"
       gradientUnits="userSpaceOnUse" />
    <linearGradient
       inkscape:collect="always"
       xlink:href="#linearGradient3774"
       id="linearGradient3784"
       gradientUnits="userSpaceOnUse"
       x1="55"
       y1="135"
       x2="55"
       y2="200"
       gradientTransform="translate(40,54.362183)" />
    <linearGradient
       inkscape:collect="always"
       xlink:href="#linearGradient3774"
       id="linearGradient3788"
       gradientUnits="userSpaceOnUse"
       gradientTransform="matrix(1.3333333,0,0,1,83.333333,27.362183)"
       x1="55"
       y1="135"
       x2="55"
       y2="200" />
    <linearGradient
       inkscape:collect="always"
       xlink:href="#linearGradient3774"
       id="linearGradient3792"
       gradientUnits="userSpaceOnUse"
       gradientTransform="matrix(2,0,0,1,50,82.362183)"
       x1="55"
       y1="135"
       x2="55"
       y2="200" />
    <linearGradient
       inkscape:collect="always"
       xlink:href="#linearGradient3774"
       id="linearGradient3796"
       gradientUnits="userSpaceOnUse"
       gradientTransform="translate(40,-42.637817)"
       x1="55"
       y1="135"
       x2="55"
       y2="200" />
    <linearGradient
       inkscape:collect="always"
       xlink:href="#linearGradient3774"
       id="linearGradient3800"
       gradientUnits="userSpaceOnUse"
       gradientTransform="matrix(2,0,0,1,50,-12.637817)"
       x1="55"
       y1="135"
       x2="55"
       y2="200" />
    <linearGradient
       inkscape:collect="always"
       xlink:href="#linearGradient3774"
       id="linearGradient3804"
       gradientUnits="userSpaceOnUse"
       gradientTransform="matrix(0.66666667,0,0,1,26.666667,72.362183)"
       x1="55"
       y1="135"
       x2="55"
       y2="200" />
    <linearGradient
       inkscape:collect="always"
       xlink:href="#linearGradient3774"
       id="linearGradient3808"
       gradientUnits="userSpaceOnUse"
       gradientTransform="matrix(0.66666667,0,0,1,26.666667,-17.637817)"
       x1="55"
       y1="135"
       x2="55"
       y2="200" />
    <linearGradient
       inkscape:collect="always"
       xlink:href="#linearGradient3774"
       id="linearGradient3812"
       gradientUnits="userSpaceOnUse"
       gradientTransform="matrix(1.3333333,0,0,1,143.33333,2.3621834)"
       x1="55"
       y1="135"
       x2="55"
       y2="200" />
    <linearGradient
       inkscape:collect="always"
       xlink:href="#linearGradient3774"
       id="linearGradient3816"
       gradientUnits="userSpaceOnUse"
       gradientTransform="matrix(2,0,0,1,110,57.362184)"
       x1="55"
       y1="135"
       x2="55"
       y2="200" />
    <linearGradient
       inkscape:collect="always"
       xlink:href="#linearGradient3774"
       id="linearGradient3820"
       gradientUnits="userSpaceOnUse"
       gradientTransform="matrix(2,0,0,1,110,-37.637816)"
       x1="55"
       y1="135"
       x2="55"
       y2="200" />
    <linearGradient
       inkscape:collect="always"
       xlink:href="#linearGradient3774"
       id="linearGradient3826"
       gradientUnits="userSpaceOnUse"
       gradientTransform="matrix(1.3333333,0,0,1,-46.66667,2.3621838)"
       x1="55"
       y1="135"
       x2="55"
       y2="200" />
    <linearGradient
       inkscape:collect="always"
       xlink:href="#linearGradient3774"
       id="linearGradient3828"
       gradientUnits="userSpaceOnUse"
       gradientTransform="matrix(2,0,0,1,-80,57.362184)"
       x1="55"
       y1="135"
       x2="55"
       y2="200" />
    <linearGradient
       inkscape:collect="always"
       xlink:href="#linearGradient3774"
       id="linearGradient3832"
       gradientUnits="userSpaceOnUse"
       x1="55"
       y1="135"
       x2="55"
       y2="200"
       gradientTransform="translate(0,-72.637817)" />
    <linearGradient
       inkscape:collect="always"
       xlink:href="#linearGradient3774"
       id="linearGradient3825"
       gradientUnits="userSpaceOnUse"
       gradientTransform="matrix(1.3333333,0,0,1,-46.66667,2.3621838)"
       x1="55"
       y1="135"
       x2="55"
       y2="200" />
    <linearGradient
       inkscape:collect="always"
       xlink:href="#linearGradient3774"
       id="linearGradient3827"
       gradientUnits="userSpaceOnUse"
       gradientTransform="matrix(2,0,0,1,110,-37.637816)"
       x1="55"
       y1="135"
       x2="55"
       y2="200" />
    <linearGradient
       inkscape:collect="always"
       xlink:href="#linearGradient3774"
       id="linearGradient3829"
       gradientUnits="userSpaceOnUse"
       gradientTransform="matrix(1.3333333,0,0,1,143.33333,2.3621834)"
       x1="55"
       y1="135"
       x2="55"
       y2="200" />
    <linearGradient
       inkscape:collect="always"
       xlink:href="#linearGradient3774"
       id="linearGradient3831"
       gradientUnits="userSpaceOnUse"
       gradientTransform="translate(40,-42.637817)"
       x1="55"
       y1="135"
       x2="55"
       y2="200" />
    <linearGradient
       inkscape:collect="always"
       xlink:href="#linearGradient3774"
       id="linearGradient3833"
       gradientUnits="userSpaceOnUse"
       gradientTransform="matrix(2,0,0,1,110,57.362184)"
       x1="55"
       y1="135"
       x2="55"
       y2="200" />
    <linearGradient
       inkscape:collect="always"
       xlink:href="#linearGradient3774"
       id="linearGradient3835"
       gradientUnits="userSpaceOnUse"
       gradientTransform="matrix(2,0,0,1,-80,57.362184)"
       x1="55"
       y1="135"
       x2="55"
       y2="200" />
    <linearGradient
       inkscape:collect="always"
       xlink:href="#linearGradient3774"
       id="linearGradient3837"
       gradientUnits="userSpaceOnUse"
       x1="55"
       y1="135"
       x2="55"
       y2="200" />
    <linearGradient
       inkscape:collect="always"
       xlink:href="#linearGradient3774"
       id="linearGradient3839"
       gradientUnits="userSpaceOnUse"
       gradientTransform="matrix(0.66666667,0,0,1,26.666667,-17.637817)"
       x1="55"
       y1="135"
       x2="55"
       y2="200" />
    <linearGradient
       inkscape:collect="always"
       xlink:href="#linearGradient3774"
       id="linearGradient3841"
       gradientUnits="userSpaceOnUse"
       gradientTransform="translate(0,-72.637817)"
       x1="55"
       y1="135"
       x2="55"
       y2="200" />
    <linearGradient
       inkscape:collect="always"
       xlink:href="#linearGradient3774"
       id="linearGradient3843"
       gradientUnits="userSpaceOnUse"
       gradientTransform="matrix(2,0,0,1,50,-12.637817)"
       x1="55"
       y1="135"
       x2="55"
       y2="200" />
    <linearGradient
       inkscape:collect="always"
       xlink:href="#linearGradient3774"
       id="linearGradient3845"
       gradientUnits="userSpaceOnUse"
       gradientTransform="matrix(1.3333333,0,0,1,83.333333,27.362183)"
       x1="55"
       y1="135"
       x2="55"
       y2="200" />
    <linearGradient
       inkscape:collect="always"
       xlink:href="#linearGradient3774"
       id="linearGradient3847"
       gradientUnits="userSpaceOnUse"
       gradientTransform="matrix(0.66666667,0,0,1,26.666667,72.362183)"
       x1="55"
       y1="135"
       x2="55"
       y2="200" />
    <linearGradient
       inkscape:collect="always"
       xlink:href="#linearGradient3774"
       id="linearGradient3849"
       gradientUnits="userSpaceOnUse"
       gradientTransform="matrix(2,0,0,1,50,82.362183)"
       x1="55"
       y1="135"
       x2="55"
       y2="200" />
    <linearGradient
       inkscape:collect="always"
       xlink:href="#linearGradient3774"
       id="linearGradient3851"
       gradientUnits="userSpaceOnUse"
       gradientTransform="translate(40,54.362183)"
       x1="55"
       y1="135"
       x2="55"
       y2="200" />
    <linearGradient
       inkscape:collect="always"
       xlink:href="#linearGradient3774"
       id="linearGradient3862"
       gradientUnits="userSpaceOnUse"
       gradientTransform="translate(40,54.362183)"
       x1="55"
       y1="135"
       x2="55"
       y2="200" />
    <linearGradient
       inkscape:collect="always"
       xlink:href="#linearGradient3774"
       id="linearGradient3865"
       gradientUnits="userSpaceOnUse"
       gradientTransform="matrix(2,0,0,1,50,82.362183)"
       x1="55"
       y1="135"
       x2="55"
       y2="200" />
    <linearGradient
       inkscape:collect="always"
       xlink:href="#linearGradient3774"
       id="linearGradient3868"
       gradientUnits="userSpaceOnUse"
       gradientTransform="matrix(0.66666667,0,0,1,26.666667,72.362183)"
       x1="55"
       y1="135"
       x2="55"
       y2="200" />
    <linearGradient
       inkscape:collect="always"
       xlink:href="#linearGradient3774"
       id="linearGradient3871"
       gradientUnits="userSpaceOnUse"
       gradientTransform="matrix(1.3333333,0,0,1,83.333333,27.362183)"
       x1="55"
       y1="135"
       x2="55"
       y2="200" />
    <linearGradient
       inkscape:collect="always"
       xlink:href="#linearGradient3774"
       id="linearGradient3874"
       gradientUnits="userSpaceOnUse"
       gradientTransform="matrix(2,0,0,1,50,-12.637817)"
       x1="55"
       y1="135"
       x2="55"
       y2="200" />
    <linearGradient
       inkscape:collect="always"
       xlink:href="#linearGradient3774"
       id="linearGradient3877"
       gradientUnits="userSpaceOnUse"
       gradientTransform="translate(0,-72.637817)"
       x1="55"
       y1="135"
       x2="55"
       y2="200" />
    <linearGradient
       inkscape:collect="always"
       xlink:href="#linearGradient3774"
       id="linearGradient3880"
       gradientUnits="userSpaceOnUse"
       gradientTransform="matrix(0.66666667,0,0,1,26.666667,-17.637817)"
       x1="55"
       y1="135"
       x2="55"
       y2="200" />
    <linearGradient
       inkscape:collect="always"
       xlink:href="#linearGradient3774"
       id="linearGradient3883"
       gradientUnits="userSpaceOnUse"
       x1="55"
       y1="135"
       x2="55"
       y2="200"
       gradientTransform="translate(0,22.362183)" />
    <linearGradient
       inkscape:collect="always"
       xlink:href="#linearGradient3774"
       id="linearGradient3886"
       gradientUnits="userSpaceOnUse"
       gradientTransform="matrix(2,0,0,1,-80,57.362184)"
       x1="55"
       y1="135"
       x2="55"
       y2="200" />
    <linearGradient
       inkscape:collect="always"
       xlink:href="#linearGradient3774"
       id="linearGradient3889"
       gradientUnits="userSpaceOnUse"
       gradientTransform="matrix(2,0,0,1,110,57.362184)"
       x1="55"
       y1="135"
       x2="55"
       y2="200" />
    <linearGradient
       inkscape:collect="always"
       xlink:href="#linearGradient3774"
       id="linearGradient3892"
       gradientUnits="userSpaceOnUse"
       gradientTransform="translate(40,-42.637817)"
       x1="55"
       y1="135"
       x2="55"
       y2="200" />
    <linearGradient
       inkscape:collect="always"
       xlink:href="#linearGradient3774"
       id="linearGradient3895"
       gradientUnits="userSpaceOnUse"
       gradientTransform="matrix(1.3333333,0,0,1,143.33333,2.3621834)"
       x1="55"
       y1="135"
       x2="55"
       y2="200" />
    <linearGradient
       inkscape:collect="always"
       xlink:href="#linearGradient3774"
       id="linearGradient3898"
       gradientUnits="userSpaceOnUse"
       gradientTransform="matrix(2,0,0,1,110,-37.637816)"
       x1="55"
       y1="135"
       x2="55"
       y2="200" />
    <linearGradient
       inkscape:collect="always"
       xlink:href="#linearGradient3774"
       id="linearGradient3901"
       gradientUnits="userSpaceOnUse"
       gradientTransform="matrix(1.3333333,0,0,1,-46.66667,2.3621838)"
       x1="55"
       y1="135"
       x2="55"
       y2="200" />
  </defs>
  <sodipodi:namedview
     id="base"
     pagecolor="#ffffff"
     bordercolor="#666666"
     borderopacity="1.0"
     inkscape:pageopacity="0.0"
     inkscape:pageshadow="2"
     inkscape:zoom="2.5856413"
     inkscape:cx="57.424507"
     inkscape:cy="29.188797"
     inkscape:document-units="px"
     inkscape:current-layer="layer1"
     showgrid="true"
     fit-margin-top="0"
     fit-margin-left="0"
     fit-margin-right="0"
     fit-margin-bottom="0"
     inkscape:snap-bbox="true"
     inkscape:window-width="1920"
     inkscape:window-height="1018"
     inkscape:window-x="-8"
     inkscape:window-y="-8"
     inkscape:window-maximized="1"
     showguides="true"
     inkscape:guide-bbox="true">
    <inkscape:grid
       type="xygrid"
       id="grid2987"
       empspacing="1"
       visible="true"
       enabled="true"
       snapvisiblegridlinesonly="true"
       originx="0px"
       originy="-840px" />
  </sodipodi:namedview>
  <metadata
     id="metadata7">
    <rdf:RDF>
      <cc:Work
         rdf:about="">
        <dc:format>image/svg+xml</dc:format>
        <dc:type
           rdf:resource="http://purl.org/dc/dcmitype/StillImage" />
        <dc:title />
      </cc:Work>
    </rdf:RDF>
  </metadata>
  <g
     inkscape:label="Layer 1"
     inkscape:groupmode="layer"
     id="layer1"
     transform="translate(0,-22.362183)">
    <rect
       style="fill:#3c6f82;fill-opacity:1;fill-rule:evenodd;stroke:none"
       id="rect2989"
       width="190"
       height="95"
       x="0"
       y="132.36218"
       rx="0"
       ry="0"
       inkscape:export-filename="D:\CH_scm\chscm\project\char_bmp\bg.png"
       inkscape:export-xdpi="90"
       inkscape:export-ydpi="90"
       inkscape:transform-center-x="-95"
       inkscape:transform-center-y="47.499998" />
    <rect
       style="fill:url(#linearGradient3901);fill-opacity:1;fill-rule:evenodd;stroke:none"
       id="rect3822"
       width="40"
       height="80"
       x="-20"
       y="137.36218" />
    <rect
       y="97.362183"
       x="150"
       height="80"
       width="60"
       id="rect3818"
       style="fill:url(#linearGradient3898);fill-opacity:1;fill-rule:evenodd;stroke:none" />
    <rect
       y="137.36218"
       x="170"
       height="80"
       width="40"
       id="rect3810"
       style="fill:url(#linearGradient3895);fill-opacity:1;fill-rule:evenodd;stroke:none" />
    <rect
       style="fill:url(#linearGradient3892);fill-opacity:1;fill-rule:evenodd;stroke:none"
       id="rect3794"
       width="30"
       height="80"
       x="60"
       y="92.362183" />
    <rect
       style="fill:url(#linearGradient3889);fill-opacity:1;fill-rule:evenodd;stroke:none"
       id="rect3814"
       width="60"
       height="80"
       x="150"
       y="192.36218" />
    <rect
       y="192.36218"
       x="-40"
       height="80"
       width="60"
       id="rect3824"
       style="fill:url(#linearGradient3886);fill-opacity:1;fill-rule:evenodd;stroke:none" />
    <rect
       style="fill:url(#linearGradient3883);fill-opacity:1;fill-rule:evenodd;stroke:none"
       id="rect2996"
       width="60"
       height="85"
       x="20"
       y="157.36218" />
    <rect
       y="117.36218"
       x="40"
       height="80"
       width="20"
       id="rect3806"
       style="fill:url(#linearGradient3880);fill-opacity:1;fill-rule:evenodd;stroke:none" />
    <rect
       y="62.362183"
       x="20"
       height="85"
       width="60"
       id="rect3830"
       style="fill:url(#linearGradient3877);fill-opacity:1;fill-rule:evenodd;stroke:none" />
    <rect
       style="fill:url(#linearGradient3874);fill-opacity:1;fill-rule:evenodd;stroke:none"
       id="rect3798"
       width="60"
       height="80"
       x="90"
       y="122.36218" />
    <rect
       style="fill:url(#linearGradient3871);fill-opacity:1;fill-rule:evenodd;stroke:none"
       id="rect3786"
       width="40"
       height="80"
       x="110"
       y="162.36218" />
    <rect
       style="fill:url(#linearGradient3868);fill-opacity:1;fill-rule:evenodd;stroke:none"
       id="rect3802"
       width="20"
       height="80"
       x="40"
       y="207.36218" />
    <rect
       y="217.36218"
       x="90"
       height="80"
       width="60"
       id="rect3790"
       style="fill:url(#linearGradient3865);fill-opacity:1;fill-rule:evenodd;stroke:none" />
    <rect
       y="189.36218"
       x="60"
       height="80"
       width="30"
       id="rect3782"
       style="fill:url(#linearGradient3862);fill-opacity:1;fill-rule:evenodd;stroke:none" />
    <g
       id="g3027"
       style="fill:#5c9192;fill-opacity:1">
      <path
         inkscape:transform-center-y="99.999994"
         inkscape:transform-center-x="-190"
         transform="matrix(1,0,0,0.49999999,0,137.36218)"
         d="m 210,190 c 0,11.04569 -8.95431,20 -20,20 -11.04569,0 -20,-8.95431 -20,-20 0,-11.04569 8.95431,-20 20,-20 11.04569,0 20,8.95431 20,20 z"
         sodipodi:ry="20"
         sodipodi:rx="20"
         sodipodi:cy="190"
         sodipodi:cx="190"
         id="path2991"
         style="fill:#5c9192;fill-opacity:1;fill-rule:evenodd;stroke:none"
         sodipodi:type="arc" />
      <path
         inkscape:transform-center-y="4.9999979"
         transform="matrix(1,0,0,0.49999999,-190,42.362184)"
         d="m 210,190 c 0,11.04569 -8.95431,20 -20,20 -11.04569,0 -20,-8.95431 -20,-20 0,-11.04569 8.95431,-20 20,-20 11.04569,0 20,8.95431 20,20 z"
         sodipodi:ry="20"
         sodipodi:rx="20"
         sodipodi:cy="190"
         sodipodi:cx="190"
         id="path3763"
         style="fill:#5c9192;fill-opacity:1;fill-rule:evenodd;stroke:none"
         sodipodi:type="arc" />
      <path
         inkscape:transform-center-y="4.9999979"
         inkscape:transform-center-x="-190"
         sodipodi:type="arc"
         style="fill:#5c9192;fill-opacity:1;fill-rule:evenodd;stroke:none"
         id="path3765"
         sodipodi:cx="190"
         sodipodi:cy="190"
         sodipodi:rx="20"
         sodipodi:ry="20"
         d="m 210,190 c 0,11.04569 -8.95431,20 -20,20 -11.04569,0 -20,-8.95431 -20,-20 0,-11.04569 8.95431,-20 20,-20 11.04569,0 20,8.95431 20,20 z"
         transform="matrix(1,0,0,0.49999999,0,42.362184)" />
      <path
         inkscape:transform-center-y="99.999994"
         sodipodi:type="arc"
         style="fill:#5c9192;fill-opacity:1;fill-rule:evenodd;stroke:none"
         id="path3761"
         sodipodi:cx="190"
         sodipodi:cy="190"
         sodipodi:rx="20"
         sodipodi:ry="20"
         d="m 210,190 c 0,11.04569 -8.95431,20 -20,20 -11.04569,0 -20,-8.95431 -20,-20 0,-11.04569 8.95431,-20 20,-20 11.04569,0 20,8.95431 20,20 z"
         transform="matrix(1,0,0,0.49999999,-190,137.36218)" />
      <path
         inkscape:transform-center-y="24.999998"
         inkscape:transform-center-x="-50"
         transform="matrix(1.5,0,0,0.74999999,-235,14.862184)"
         d="m 210,190 c 0,11.04569 -8.95431,20 -20,20 -11.04569,0 -20,-8.95431 -20,-20 0,-11.04569 8.95431,-20 20,-20 11.04569,0 20,8.95431 20,20 z"
         sodipodi:ry="20"
         sodipodi:rx="20"
         sodipodi:cy="190"
         sodipodi:cx="190"
         id="path3763-1"
         style="fill:#5c9192;fill-opacity:1;fill-rule:evenodd;stroke:none"
         sodipodi:type="arc" />
      <path
         inkscape:transform-center-y="29.999997"
         inkscape:transform-center-x="-130"
         transform="matrix(1,0,0,0.49999999,-60,67.362183)"
         d="m 210,190 c 0,11.04569 -8.95431,20 -20,20 -11.04569,0 -20,-8.95431 -20,-20 0,-11.04569 8.95431,-20 20,-20 11.04569,0 20,8.95431 20,20 z"
         sodipodi:ry="20"
         sodipodi:rx="20"
         sodipodi:cy="190"
         sodipodi:cx="190"
         id="path3763-7"
         style="fill:#5c9192;fill-opacity:1;fill-rule:evenodd;stroke:none"
         sodipodi:type="arc" />
      <path
         inkscape:transform-center-y="74.999996"
         inkscape:transform-center-x="-50"
         transform="matrix(0.5,0,0,0.25,-45,159.86218)"
         d="m 210,190 c 0,11.04569 -8.95431,20 -20,20 -11.04569,0 -20,-8.95431 -20,-20 0,-11.04569 8.95431,-20 20,-20 11.04569,0 20,8.95431 20,20 z"
         sodipodi:ry="20"
         sodipodi:rx="20"
         sodipodi:cy="190"
         sodipodi:cx="190"
         id="path3763-4"
         style="fill:#5c9192;fill-opacity:1;fill-rule:evenodd;stroke:none"
         sodipodi:type="arc" />
      <path
         inkscape:transform-center-y="84.999999"
         inkscape:transform-center-x="-120"
         transform="matrix(1.5,0,0,0.74999999,-165,74.862185)"
         d="m 210,190 c 0,11.04569 -8.95431,20 -20,20 -11.04569,0 -20,-8.95431 -20,-20 0,-11.04569 8.95431,-20 20,-20 11.04569,0 20,8.95431 20,20 z"
         sodipodi:ry="20"
         sodipodi:rx="20"
         sodipodi:cy="190"
         sodipodi:cx="190"
         id="path3763-0"
         style="fill:#5c9192;fill-opacity:1;fill-rule:evenodd;stroke:none"
         sodipodi:type="arc" />
      <path
         inkscape:transform-center-y="-10.000002"
         inkscape:transform-center-x="-120"
         sodipodi:type="arc"
         style="fill:#5c9192;fill-opacity:1;fill-rule:evenodd;stroke:none"
         id="path3806"
         sodipodi:cx="190"
         sodipodi:cy="190"
         sodipodi:rx="20"
         sodipodi:ry="20"
         d="m 210,190 c 0,11.04569 -8.95431,20 -20,20 -11.04569,0 -20,-8.95431 -20,-20 0,-11.04569 8.95431,-20 20,-20 11.04569,0 20,8.95431 20,20 z"
         transform="matrix(1.5,0,0,0.74999999,-165,-20.137816)" />
      <path
         inkscape:transform-center-y="59.999998"
         inkscape:transform-center-x="-180"
         sodipodi:type="arc"
         style="fill:#5c9192;fill-opacity:1;fill-rule:evenodd;stroke:none"
         id="path3808"
         sodipodi:cx="190"
         sodipodi:cy="190"
         sodipodi:rx="20"
         sodipodi:ry="20"
         d="m 210,190 c 0,11.04569 -8.95431,20 -20,20 -11.04569,0 -20,-8.95431 -20,-20 0,-11.04569 8.95431,-20 20,-20 11.04569,0 20,8.95431 20,20 z"
         transform="matrix(1.5,0,0,0.74999999,-105,49.862184)" />
      <path
         inkscape:transform-center-y="59.999998"
         inkscape:transform-center-x="10"
         transform="matrix(1.5,0,0,0.74999999,-295,49.862184)"
         d="m 210,190 c 0,11.04569 -8.95431,20 -20,20 -11.04569,0 -20,-8.95431 -20,-20 0,-11.04569 8.95431,-20 20,-20 11.04569,0 20,8.95431 20,20 z"
         sodipodi:ry="20"
         sodipodi:rx="20"
         sodipodi:cy="190"
         sodipodi:cx="190"
         id="path3810"
         style="fill:#5c9192;fill-opacity:1;fill-rule:evenodd;stroke:none"
         sodipodi:type="arc" />
      <path
         inkscape:transform-center-y="57.499996"
         inkscape:transform-center-x="-75"
         sodipodi:type="arc"
         style="fill:#5c9192;fill-opacity:1;fill-rule:evenodd;stroke:none"
         id="path3812"
         sodipodi:cx="190"
         sodipodi:cy="190"
         sodipodi:rx="20"
         sodipodi:ry="20"
         d="m 210,190 c 0,11.04569 -8.95431,20 -20,20 -11.04569,0 -20,-8.95431 -20,-20 0,-11.04569 8.95431,-20 20,-20 11.04569,0 20,8.95431 20,20 z"
         transform="matrix(0.75,0,0,0.375,-67.5,118.61218)" />
    </g>
  </g>
</svg>
